{
    "format": {
        "version": "1.0"
    },
    "shaders": {
        "Main shader": {
            "parameters": {
                "Common Parameters": {
                    "alpha_dither": false,
                    "alpha_threshold": 0.33000001311302185,
                    "ao_intensity": 0.75,
                    "emissive_intensity": 1,
                    "horizonFade": 1.2999999523162842,
                    "nbSamples": 16
                }
            },
            "shader": "adobe-dimension",
            "shaderInstance": "Main shader"
        }
    },
    "texturesets": {
        "Desert_Road_Base": {
            "shader": "Main shader"
        },
        "Desert_Road_Lines": {
            "shader": "Main shader"
        }
    }
}
